[{"code":200,
    "meta":{"pagination":{"total":2491,"pages":125,"page":1,"limit":20}},
    "detail":[
        {"id":2552,"name":"Vidhur Kaul LLD","email":"kaul_lld_vidhur@schinner.co","gender":"male","status":"active"},
        {"id":2550,"name":"Nanda Kaniyar Jr.","email":"jr_kaniyar_nanda@lesch.info","gender":"male","status":"inactive"},
        {"id":2549,"name":"Satish Sethi","email":"sethi_satish@grady.net","gender":"female","status":"active"},
        {"id":2548,"name":"Tanushri Guneta PhD","email":"guneta_phd_tanushri@hettinger.com","gender":"male","status":"active"},
        {"id":2547,"name":"Krishnadasa Dwivedi","email":"krishnadasa_dwivedi@hammes.co","gender":"female","status":"active"},
        {"id":2546,"name":"Jyotsana Mishra","email":"jyotsana_mishra@rolfson-ankunding.io","gender":"female","status":"inactive"},
        {"id":2545,"name":"Ganapati Pothuvaal","email":"ganapati_pothuvaal@hickle.com","gender":"female","status":"inactive"},
        {"id":2544,"name":"Shashi Kakkar","email":"kakkar_shashi@weber-mills.io","gender":"female","status":"active"},
        {"id":2543,"name":"Chandira Agarwal","email":"chandira_agarwal@turcotte.io","gender":"female","status":"active"},
        {"id":2542,"name":"Manoj Mahajan","email":"manoj_mahajan@smitham.biz","gender":"male","status":"inactive"},
        {"id":2541,"name":"Bhardwaj Kocchar","email":"bhardwaj_kocchar@kling-mitchell.io","gender":"male","status":"active"},
        {"id":2540,"name":"Jaimini Guneta","email":"guneta_jaimini@bergstrom.info","gender":"female","status":"active"},
        {"id":2539,"name":"Charuchandra Dubashi","email":"charuchandra_dubashi@reynolds.biz","gender":"female","status":"active"},
        {"id":2538,"name":"Bhilangana Dubashi","email":"bhilangana_dubashi@gleichner.biz","gender":"male","status":"inactive"},
        {"id":2537,"name":"Gitanjali Gowda","email":"gowda_gitanjali@hayes.io","gender":"female","status":"inactive"},
        {"id":2536,"name":"Devak Dhawan","email":"devak_dhawan@parisian.name","gender":"male","status":"inactive"},
        {"id":2535,"name":"Chetanaanand Varman","email":"varman_chetanaanand@dicki.biz","gender":"female","status":"inactive"},
        {"id":2534,"name":"Jagdeep Gupta","email":"jagdeep_gupta@miller-barrows.org","gender":"male","status":"inactive"},
        {"id":2533,"name":"Purushottam Ahluwalia","email":"purushottam_ahluwalia@jacobson.name","gender":"male","status":"active"},
        {"id":2532,"name":"Prof. Sharmila Tandon","email":"prof_sharmila_tandon@braun.com","gender":"female","status":"active"}
    ]
}]